{
  "project_info": {
    "project_number": "330155568392",
    "firebase_url": "https://innovacion-orbita.firebaseio.com",
    "project_id": "innovacion-orbita",
    "storage_bucket": "innovacion-orbita.appspot.com"
  },
  "client": [
    {
      "client_info": {
        "mobilesdk_app_id": "1:330155568392:android:51dde2e284f32c3b",
        "android_client_info": {
          "package_name": "com.orbita.innovacion.proyinte"
        }
      },
      "oauth_client": [
        {
          "client_id": "330155568392-tt6qj7fd5al150hd7sn239135ehdvobp.apps.googleusercontent.com",
          "client_type": 1,
          "android_info": {
            "package_name": "com.orbita.innovacion.proyinte",
            "certificate_hash": "454812541c13e9080e6e08e90b0bcc7ad09e137a"
          }
        },
        {
          "client_id": "330155568392-mnan5j0g6g7l6tobpdsg2ir6vfa886vh.apps.googleusercontent.com",
          "client_type": 3
        }
      ],
      "api_key": [
        {
          "current_key": "AIzaSyBuLMqb6RA-U3AVWWP56_N1_-JZOA5xrZk"
        }
      ],
      "services": {
        "analytics_service": {
          "status": 1
        },
        "appinvite_service": {
          "status": 2,
          "other_platform_oauth_client": [
            {
              "client_id": "330155568392-mnan5j0g6g7l6tobpdsg2ir6vfa886vh.apps.googleusercontent.com",
              "client_type": 3
            }
          ]
        },
        "ads_service": {
          "status": 2
        }
      }
    }
  ],
  "configuration_version": "1"
}